…
``` r
wp_homicides_url = "https://raw.githubusercontent.com/washingtonpost/data-homicides/master/homicide-data.csv"

homicides =
  read_csv(wp_homicides_url,
           col_types = c("c", "c", "c", "c", "c", "n", "c", "c", "c", "d", "d", "c")) %>% # Read in the raw csv dataset
  janitor::clean_names()

homicides
```

    ## # A tibble: 52,179 × 12
    ##    uid   repor…¹ victi…² victi…³ victi…⁴ victi…⁵ victi…⁶ city  state   lat   lon
    ##    <chr>   <dbl> <chr>   <chr>   <chr>   <chr>   <chr>   <chr> <chr> <dbl> <dbl>
    ##  1 Alb-…  2.01e7 GARCIA  JUAN    Hispan… 78      Male    Albu… NM     35.1 -107.
    ##  2 Alb-…  2.01e7 MONTOYA CAMERON Hispan… 17      Male    Albu… NM     35.1 -107.
    ##  3 Alb-…  2.01e7 SATTER… VIVIANA White   15      Female  Albu… NM     35.1 -107.
    ##  4 Alb-…  2.01e7 MENDIO… CARLOS  Hispan… 32      Male    Albu… NM     35.1 -107.
    ##  5 Alb-…  2.01e7 MULA    VIVIAN  White   72      Female  Albu… NM     35.1 -107.
    ##  6 Alb-…  2.01e7 BOOK    GERALD… White   91      Female  Albu… NM     35.2 -107.
    ##  7 Alb-…  2.01e7 MALDON… DAVID   Hispan… 52      Male    Albu… NM     35.1 -107.
    ##  8 Alb-…  2.01e7 MALDON… CONNIE  Hispan… 52      Female  Albu… NM     35.1 -107.
    ##  9 Alb-…  2.01e7 MARTIN… GUSTAVO White   56      Male    Albu… NM     35.1 -107.
    ## 10 Alb-…  2.01e7 HERRERA ISRAEL  Hispan… 43      Male    Albu… NM     35.1 -107.
    ## # … with 52,169 more rows, 1 more variable: disposition <chr>, and abbreviated
    ## #   variable names ¹​reported_date, ²​victim_last, ³​victim_first, ⁴​victim_race,
    ## #   ⁵​victim_age, ⁶​victim_sex
…
homicides_df
```

    ## # A tibble: 39,693 × 5
    ##    victim_race victim_age victim_sex city_state      solved
    ##    <chr>            <dbl> <chr>      <chr>            <dbl>
    ##  1 White               15 Female     Albuquerque, NM      0
    ##  2 White               72 Female     Albuquerque, NM      0
    ##  3 White               91 Female     Albuquerque, NM      0
    ##  4 White               56 Male       Albuquerque, NM      0
    ##  5 White               NA Male       Albuquerque, NM      0
    ##  6 White               43 Female     Albuquerque, NM      1
    ##  7 White               52 Male       Albuquerque, NM      1
    ##  8 White               22 Female     Albuquerque, NM      1
    ##  9 Black               15 Male       Albuquerque, NM      1
    ## 10 Black               25 Male       Albuquerque, NM      1
    ## # … with 39,683 more rows
…
``` r
# Let's load in the dataset!
birthweight_df =
  read_csv("data/birthweight.csv") %>%
  janitor::clean_names() %>%
  mutate(babysex = as.factor(babysex),
         frace = as.factor(frace),
         malform = as.factor(malform),
         mrace = as.factor(mrace))

birthweight_df
```

    ## # A tibble: 4,342 × 20
    ##    babysex bhead blength   bwt delwt fincome frace gaweeks malform menarche
    ##    <fct>   <dbl>   <dbl> <dbl> <dbl>   <dbl> <fct>   <dbl> <fct>      <dbl>
    ##  1 2          34      51  3629   177      35 1        39.9 0             13
    ##  2 1          34      48  3062   156      65 2        25.9 0             14
    ##  3 2          36      50  3345   148      85 1        39.9 0             12
    ##  4 1          34      52  3062   157      55 1        40   0             14
    ##  5 2          34      52  3374   156       5 1        41.6 0             13
    ##  6 1          33      52  3374   129      55 1        40.7 0             12
    ##  7 2          33      46  2523   126      96 2        40.3 0             14
    ##  8 2          33      49  2778   140       5 1        37.4 0             12
    ##  9 1          36      52  3515   146      85 1        40.3 0             11
    ## 10 1          33      50  3459   169      75 2        40.7 0             12
    ## # … with 4,332 more rows, and 10 more variables: mheight <dbl>, momage <dbl>,
    ## #   mrace <fct>, parity <dbl>, pnumlbw <dbl>, pnumsga <dbl>, ppbmi <dbl>,
    ## #   ppwt <dbl>, smoken <dbl>, wtgain <dbl>
…
